…
tmp
~~~
{: .language-r}



~~~
# A tibble: 200 x 8
# Groups:   expression [50]
   expression         data     model  term      estimate std.e~1 stati~2 p.value
   <chr>              <list>   <list> <chr>        <dbl>   <dbl>   <dbl>   <dbl>
 1 ENSMUSG00000020323 <tibble> <lm>   (Interce~  4.03e-1 0.599     0.672 5.02e-1
 2 ENSMUSG00000020323 <tibble> <lm>   sexM      -1.18e-1 0.0977   -1.20  2.29e-1
 3 ENSMUSG00000020323 <tibble> <lm>   DOwave     2.27e-1 0.0439    5.18  3.72e-7
 4 ENSMUSG00000020323 <tibble> <lm>   diet_days -7.10e-3 0.00458  -1.55  1.22e-1
 5 ENSMUSG00000025949 <tibble> <lm>   (Interce~  4.96e-1 0.593     0.836 4.04e-1
 6 ENSMUSG00000025949 <tibble> <lm>   sexM      -5.50e-1 0.0966   -5.70  2.50e-8
 7 ENSMUSG00000025949 <tibble> <lm>   DOwave    -1.17e-1 0.0434   -2.70  7.30e-3
 8 ENSMUSG00000025949 <tibble> <lm>   diet_days  6.91e-4 0.00453   0.153 8.79e-1
 9 ENSMUSG00000085666 <tibble> <lm>   (Interce~  3.40e-1 0.623     0.545 5.86e-1
10 ENSMUSG00000085666 <tibble> <lm>   sexM      -6.14e-2 0.101    -0.605 5.45e-1
# ... with 190 more rows, and abbreviated variable names 1: std.error,
#   2: statistic
…
